…
```r
gabon_africa <- gabon_africa %>% #All names to lowercase
  mutate_all(tolower)
gabon_africa
```

```
## # A tibble: 24 x 26
##    transect_id distance hunt_cat num_households land_use veg_rich veg_stems
##    <chr>       <chr>    <chr>    <chr>          <chr>    <chr>    <chr>    
##  1 1           7.14     moderate 54             park     16.67    31.2     
##  2 2           17.31    none     54             park     15.75    37.44    
##  3 2           18.32    none     29             park     16.88    32.33    
##  4 3           20.85    none     29             logging  12.44    29.39    
##  5 4           15.95    none     29             park     17.13    36       
##  6 5           17.47    none     29             park     16.5     29.22    
##  7 6           24.06    none     29             park     14.75    31.22    
##  8 7           19.81    none     54             logging  13.25    32.56    
##  9 8           5.78     high     25             neither  12.63    23.67    
## 10 9           5.13     high     73             logging  16       27.11    
## # ... with 14 more rows, and 19 more variables: veg_liana <chr>, veg_dbh <chr>,
## #   veg_canopy <chr>, veg_understory <chr>, ra_apes <chr>, ra_birds <chr>,
## #   ra_elephant <chr>, ra_monkeys <chr>, ra_rodent <chr>, ra_ungulate <chr>,
## #   rich_all_species <chr>, evenness_all_species <chr>,
## #   diversity_all_species <chr>, rich_bird_species <chr>,
## #   evenness_bird_species <chr>, diversity_bird_species <chr>,
## #   rich_mammal_species <chr>, evenness_mammal_species <chr>, ...
```
…
