…
Between 1952 and 2007, the global life expectancy has gradually increased over the years.

**3. How do the distributions of life expectancy compare for the years 1952 and 2007?**

```r
gapminder%>%
  select(year, life_exp)%>%
  filter(year %in% c("1952", "2007"))%>%
  group_by(year)%>%
  arrange(year)
```

```
## # A tibble: 284 x 2
## # Groups:   year [2]
##     year life_exp
##    <int>    <dbl>
##  1  1952     28.8
##  2  1952     55.2
##  3  1952     43.1
##  4  1952     30.0
##  5  1952     62.5
##  6  1952     69.1
##  7  1952     66.8
##  8  1952     50.9
##  9  1952     37.5
## 10  1952     68  
## # ... with 274 more rows
```
…
```r
top_pop_growth<- gapminder %>% 
  select(country, year, pop) %>% 
  filter(year==1952 | year==2007) %>%
  pivot_wider(names_from = year,
              names_prefix = "year_",
              values_from = pop) %>%
  mutate(difference=year_2007-year_1952) %>%
  arrange(desc(difference))
top_pop_growth
```

```
## # A tibble: 142 x 4
##    country       year_1952  year_2007 difference
##    <fct>             <int>      <int>      <int>
##  1 China         556263527 1318683096  762419569
##  2 India         372000000 1110396331  738396331
##  3 United States 157553000  301139947  143586947
##  4 Indonesia      82052000  223547000  141495000
##  5 Brazil         56602560  190010647  133408087
##  6 Pakistan       41346560  169270617  127924057
##  7 Bangladesh     46886859  150448339  103561480
##  8 Nigeria        33119096  135031164  101912068
##  9 Mexico         30144317  108700891   78556574
## 10 Philippines    22438691   91077287   68638596
## # ... with 132 more rows
```
…
```r
continent_pop <- gapminder %>% 
  select(continent, year, pop) %>% 
  group_by(continent, year) %>% 
  summarize(cont_pop=sum(pop)) %>% 
  print()
```

```
## `summarise()` has grouped output by 'continent'. You can override using the `.groups` argument.
```

```
## # A tibble: 60 x 3
## # Groups:   continent [5]
##    continent  year  cont_pop
##    <fct>     <int>     <dbl>
##  1 Africa     1952 237640501
##  2 Africa     1957 264837738
##  3 Africa     1962 296516865
##  4 Africa     1967 335289489
##  5 Africa     1972 379879541
##  6 Africa     1977 433061021
##  7 Africa     1982 499348587
##  8 Africa     1987 574834110
##  9 Africa     1992 659081517
## 10 Africa     1997 743832984
## # ... with 50 more rows
```
…
