…
```r
long_population <- population_total %>%
  pivot_longer(-c(country),
               names_to="year",
               values_to="population")
long_population
```

```
## # A tibble: 58,695 x 3
##    country     year  population
##    <chr>       <chr>      <dbl>
##  1 Afghanistan 1800     3280000
##  2 Afghanistan 1801     3280000
##  3 Afghanistan 1802     3280000
##  4 Afghanistan 1803     3280000
##  5 Afghanistan 1804     3280000
##  6 Afghanistan 1805     3280000
##  7 Afghanistan 1806     3280000
##  8 Afghanistan 1807     3280000
##  9 Afghanistan 1808     3280000
## 10 Afghanistan 1809     3280000
## # ... with 58,685 more rows
```
…
```r
long_income <- income_per_person %>%
  pivot_longer(-c(country),
               names_to="year",
               values_to="gdp_per_capita")
long_income
```

```
## # A tibble: 46,513 x 3
##    country     year  gdp_per_capita
##    <chr>       <chr>          <dbl>
##  1 Afghanistan 1800             603
##  2 Afghanistan 1801             603
##  3 Afghanistan 1802             603
##  4 Afghanistan 1803             603
##  5 Afghanistan 1804             603
##  6 Afghanistan 1805             603
##  7 Afghanistan 1806             603
##  8 Afghanistan 1807             603
##  9 Afghanistan 1808             603
## 10 Afghanistan 1809             603
## # ... with 46,503 more rows
```
…
```r
long_life_exp <- life_expectancy %>%
  pivot_longer(-c(country),
               names_to= "year",
               values_to= "life_expectancy")
long_life_exp
```

```
## # A tibble: 56,287 x 3
##    country     year  life_expectancy
##    <chr>       <chr>           <dbl>
##  1 Afghanistan 1800             28.2
##  2 Afghanistan 1801             28.2
##  3 Afghanistan 1802             28.2
##  4 Afghanistan 1803             28.2
##  5 Afghanistan 1804             28.2
##  6 Afghanistan 1805             28.2
##  7 Afghanistan 1806             28.1
##  8 Afghanistan 1807             28.1
##  9 Afghanistan 1808             28.1
## 10 Afghanistan 1809             28.1
## # ... with 56,277 more rows
```
…
```
## # A tibble: 1 x 1
##   country_count
##           <int>
## 1           195
```

```r
long_population %>%
  distinct(country)
```

```
## # A tibble: 195 x 1
##    country            
##    <chr>              
##  1 Afghanistan        
##  2 Albania            
##  3 Algeria            
##  4 Andorra            
##  5 Angola             
##  6 Antigua and Barbuda
##  7 Argentina          
##  8 Armenia            
##  9 Australia          
## 10 Austria            
## # ... with 185 more rows
```
…
```
## # A tibble: 1 x 1
##   country_count
##           <int>
## 1           193
```


```r
long_income %>%
  distinct(country)
```

```
## # A tibble: 193 x 1
##    country            
##    <chr>              
##  1 Afghanistan        
##  2 Albania            
##  3 Algeria            
##  4 Andorra            
##  5 Angola             
##  6 Antigua and Barbuda
##  7 Argentina          
##  8 Armenia            
##  9 Australia          
## 10 Austria            
## # ... with 183 more rows
```
…
```
## # A tibble: 1 x 1
##   country_count
##           <int>
## 1           187
```


```r
long_life_exp %>%
  distinct(country)
```

```
## # A tibble: 187 x 1
##    country            
##    <chr>              
##  1 Afghanistan        
##  2 Albania            
##  3 Algeria            
##  4 Andorra            
##  5 Angola             
##  6 Antigua and Barbuda
##  7 Argentina          
##  8 Armenia            
##  9 Australia          
## 10 Austria            
## # ... with 177 more rows
```

There are 187 distinct countries within the life expectancy data.


```r
long_life_exp
```

```
## # A tibble: 56,287 x 3
##    country     year  life_expectancy
##    <chr>       <chr>           <dbl>
##  1 Afghanistan 1800             28.2
##  2 Afghanistan 1801             28.2
##  3 Afghanistan 1802             28.2
##  4 Afghanistan 1803             28.2
##  5 Afghanistan 1804             28.2
##  6 Afghanistan 1805             28.2
##  7 Afghanistan 1806             28.1
##  8 Afghanistan 1807             28.1
##  9 Afghanistan 1808             28.1
## 10 Afghanistan 1809             28.1
## # ... with 56,277 more rows
```
…
```r
long_population
```

```
## # A tibble: 58,695 x 3
##    country     year  population
##    <chr>       <chr>      <dbl>
##  1 Afghanistan 1800     3280000
##  2 Afghanistan 1801     3280000
##  3 Afghanistan 1802     3280000
##  4 Afghanistan 1803     3280000
##  5 Afghanistan 1804     3280000
##  6 Afghanistan 1805     3280000
##  7 Afghanistan 1806     3280000
##  8 Afghanistan 1807     3280000
##  9 Afghanistan 1808     3280000
## 10 Afghanistan 1809     3280000
## # ... with 58,685 more rows
```
…
```r
income_100 <- long_income %>%
  filter(between(year, 1920, 2020))
```


```r
gapminder_join <- inner_join(life_expectancy_100, population_100, by= c("country", "year"))
gapminder_join <- inner_join(gapminder_join, income_100, by= c("country", "year"))
gapminder_join
```

```
## # A tibble: 18,887 x 5
##    country     year  life_expectancy population gdp_per_capita
##    <chr>       <chr>           <dbl>      <dbl>          <dbl>
##  1 Afghanistan 1920             30.6   10600000           1490
##  2 Afghanistan 1921             30.7   10500000           1520
##  3 Afghanistan 1922             30.8   10300000           1550
##  4 Afghanistan 1923             30.8    9710000           1570
##  5 Afghanistan 1924             30.9    9200000           1600
##  6 Afghanistan 1925             31      8720000           1630
##  7 Afghanistan 1926             31      8260000           1650
##  8 Afghanistan 1927             31.1    7830000           1680
##  9 Afghanistan 1928             31.1    7420000           1710
## 10 Afghanistan 1929             31.2    7100000           1740
## # ... with 18,877 more rows
```
…
