…
This date is considered "tidy" because the observations are rows and the variables are viewed as columns. From utilizing the functions above, we can see it's also in a long format. 

**3. We are only interested in the variables site, date, and enterococci_cfu_100ml. Make a new object focused on these variables only. Name the object `sydneybeaches_long`**


```r
sydneybeaches_long <-sydneybeaches %>%
  select(site, date, enterococci_cfu_100ml)
sydneybeaches_long
```

```
## # A tibble: 3,690 x 3
##    site           date       enterococci_cfu_100ml
##    <chr>          <chr>                      <dbl>
##  1 Clovelly Beach 02/01/2013                    19
##  2 Clovelly Beach 06/01/2013                     3
##  3 Clovelly Beach 12/01/2013                     2
##  4 Clovelly Beach 18/01/2013                    13
##  5 Clovelly Beach 30/01/2013                     8
##  6 Clovelly Beach 05/02/2013                     7
##  7 Clovelly Beach 11/02/2013                    11
##  8 Clovelly Beach 23/02/2013                    97
##  9 Clovelly Beach 07/03/2013                     3
## 10 Clovelly Beach 25/03/2013                     0
## # ... with 3,680 more rows
```
…
**5. Pivot the data back so that the dates are data and not column names.**

```r
sydneybeaches_long_new <-sydneybeaches_wide %>%
  pivot_longer(-site, names_to= "date",
               values_to= "enterococci_cfu_100ml")
sydneybeaches_long_new
```

```
## # A tibble: 3,784 x 3
##    site           date       enterococci_cfu_100ml
##    <chr>          <chr>                      <dbl>
##  1 Clovelly Beach 02/01/2013                    19
##  2 Clovelly Beach 06/01/2013                     3
##  3 Clovelly Beach 12/01/2013                     2
##  4 Clovelly Beach 18/01/2013                    13
##  5 Clovelly Beach 30/01/2013                     8
##  6 Clovelly Beach 05/02/2013                     7
##  7 Clovelly Beach 11/02/2013                    11
##  8 Clovelly Beach 23/02/2013                    97
##  9 Clovelly Beach 07/03/2013                     3
## 10 Clovelly Beach 25/03/2013                     0
## # ... with 3,774 more rows
```


**6. We haven't dealt much with dates yet, but separate the date into columns day, month, and year. Do this on the `sydneybeaches_long` data.**

```r
sydneybeaches_dates <- sydneybeaches_long %>% 
  separate(date, into=c("day", "month", "year"),
           sep= "/")
sydneybeaches_dates
```

```
## # A tibble: 3,690 x 5
##    site           day   month year  enterococci_cfu_100ml
##    <chr>          <chr> <chr> <chr>                 <dbl>
##  1 Clovelly Beach 02    01    2013                     19
##  2 Clovelly Beach 06    01    2013                      3
##  3 Clovelly Beach 12    01    2013                      2
##  4 Clovelly Beach 18    01    2013                     13
##  5 Clovelly Beach 30    01    2013                      8
##  6 Clovelly Beach 05    02    2013                      7
##  7 Clovelly Beach 11    02    2013                     11
##  8 Clovelly Beach 23    02    2013                     97
##  9 Clovelly Beach 07    03    2013                      3
## 10 Clovelly Beach 25    03    2013                      0
## # ... with 3,680 more rows
```
…
```
## `summarise()` has grouped output by 'site'. You can override using the `.groups` argument.
```

```r
sydneybeaches_mean
```

```
## # A tibble: 66 x 4
## # Groups:   site [11]
##    site         year  avg_cfu total
##    <chr>        <chr>   <dbl> <int>
##  1 Bondi Beach  2013     32.2    58
##  2 Bondi Beach  2014     11.1    53
##  3 Bondi Beach  2015     14.3    57
##  4 Bondi Beach  2016     19.4    59
##  5 Bondi Beach  2017     13.2    61
##  6 Bondi Beach  2018     22.9    50
##  7 Bronte Beach 2013     26.8    58
##  8 Bronte Beach 2014     17.5    53
##  9 Bronte Beach 2015     23.6    57
## 10 Bronte Beach 2016     61.3    59
## # ... with 56 more rows
```


**8. Make the output from question 7 easier to read by pivoting it to wide format.**

```r
sydneybeaches_mean_wide1 <- sydneybeaches_mean %>%
  pivot_wider(names_from= "year",
              values_from= "avg_cfu")
sydneybeaches_mean_wide1
```

```
## # A tibble: 65 x 8
## # Groups:   site [11]
##    site         total `2013` `2014` `2015` `2016` `2017` `2018`
##    <chr>        <int>  <dbl>  <dbl>  <dbl>  <dbl>  <dbl>  <dbl>
##  1 Bondi Beach     58   32.2   NA     NA     NA     NA     NA  
##  2 Bondi Beach     53   NA     11.1   NA     NA     NA     NA  
##  3 Bondi Beach     57   NA     NA     14.3   NA     NA     NA  
##  4 Bondi Beach     59   NA     NA     NA     19.4   NA     NA  
##  5 Bondi Beach     61   NA     NA     NA     NA     13.2   NA  
##  6 Bondi Beach     50   NA     NA     NA     NA     NA     22.9
##  7 Bronte Beach    58   26.8   NA     NA     NA     NA     NA  
##  8 Bronte Beach    53   NA     17.5   NA     NA     NA     NA  
##  9 Bronte Beach    57   NA     NA     23.6   NA     NA     NA  
## 10 Bronte Beach    59   NA     NA     NA     61.3   NA     NA  
## # ... with 55 more rows
```
…
```r
sydneybeaches_mean_wide1 %>%
  select(`2018`) %>%
  arrange(desc(`2018`))
```

```
## Adding missing grouping variables: `site`
```

```
## # A tibble: 65 x 2
## # Groups:   site [11]
##    site                    `2018`
##    <chr>                    <dbl>
##  1 South Maroubra Rockpool  112. 
##  2 Little Bay Beach          59.1
##  3 Bronte Beach              43.4
##  4 Malabar Beach             38.0
##  5 Bondi Beach               22.9
##  6 Coogee Beach              21.6
##  7 Gordons Bay (East)        17.6
##  8 Tamarama Beach            15.5
##  9 South Maroubra Beach      12.5
## 10 Clovelly Beach            10.6
## # ... with 55 more rows
```
…
