…
```r
homerange <- clean_names(homerange)
homerange
```

```
## # A tibble: 569 x 24
##    taxon  common_name   class   order   family genus species primarymethod n    
##    <fct>  <chr>         <chr>   <fct>   <chr>  <chr> <chr>   <chr>         <chr>
##  1 lake ~ american eel  actino~ anguil~ angui~ angu~ rostra~ telemetry     16   
##  2 river~ blacktail re~ actino~ cyprin~ catos~ moxo~ poecil~ mark-recaptu~ <NA> 
##  3 river~ central ston~ actino~ cyprin~ cypri~ camp~ anomal~ mark-recaptu~ 20   
##  4 river~ rosyside dace actino~ cyprin~ cypri~ clin~ fundul~ mark-recaptu~ 26   
##  5 river~ longnose dace actino~ cyprin~ cypri~ rhin~ catara~ mark-recaptu~ 17   
##  6 river~ muskellunge   actino~ esocif~ esoci~ esox  masqui~ telemetry     5    
##  7 marin~ pollack       actino~ gadifo~ gadid~ poll~ pollac~ telemetry     2    
##  8 marin~ saithe        actino~ gadifo~ gadid~ poll~ virens  telemetry     2    
##  9 marin~ lined surgeo~ actino~ percif~ acant~ acan~ lineat~ direct obser~ <NA> 
## 10 marin~ orangespine ~ actino~ percif~ acant~ naso  litura~ telemetry     8    
## # ... with 559 more rows, and 15 more variables: mean_mass_g <dbl>,
## #   log10_mass <dbl>, alternative_mass_reference <chr>, mean_hra_m2 <dbl>,
## #   log10_hra <dbl>, hra_reference <chr>, realm <chr>, thermoregulation <chr>,
## #   locomotion <chr>, trophic_guild <chr>, dimension <dbl>, preymass <dbl>,
## #   log10_preymass <dbl>, ppmr <dbl>, prey_size_reference <chr>
```
…
**10. As measured by the data, which snake species has the smallest homerange? Show all of your work, please. Look this species up online and tell me about it!** **Snake is found in taxon column**    

```r
snakes <- filter(homerange, taxon == "snakes") #filtering homerange so that there's only snake data
snakes <- select(snakes, "common_name", "genus", "species","mean_hra_m2")
```


```r
arrange(snakes, mean_hra_m2)
```

```
## # A tibble: 41 x 4
##    common_name          genus       species      mean_hra_m2
##    <chr>                <chr>       <chr>              <dbl>
##  1 namaqua dwarf adder  bitis       schneideri          200 
##  2 eastern worm snake   carphopis   viridis             253 
##  3 butlers garter snake thamnophis  butleri             600 
##  4 western worm snake   carphopis   vermis              700 
##  5 snubnosed viper      vipera      latastei           2400 
##  6 chinese pit viper    gloydius    shedaoensis        2614.
##  7 ringneck snake       diadophis   punctatus          6476 
##  8 cottonmouth          agkistrodon piscivorous       10655 
##  9 redbacked ratsnake   oocatochus  rufodorsatus      15400 
## 10 gopher snake         pituophis   catenifer         17400 
## # ... with 31 more rows
```
…
